# Blender v2.76 (sub 0) OBJ File: ''
# www.blender.org
mtllib jaw_bottom.mtl
o jaw_bottom
v -0.256134 -0.006495 0.050832
v -0.316905 0.012612 0.053323
v -0.345024 0.018980 -0.062586
v -0.298125 0.004089 -0.062805
v -0.000000 -0.090095 -0.064603
v -0.000000 -0.067638 0.041539
v -0.139063 -0.043305 0.046035
v -0.169810 -0.036654 -0.063403
v -0.196883 -0.014768 0.198413
v -0.281363 0.015364 0.207994
v -0.000000 -0.032181 0.196306
v -0.103423 -0.036261 0.187815
v -0.316905 0.034019 0.053323
v -0.000000 0.034019 0.053323
v -0.000000 0.040387 -0.062586
v -0.345024 0.040387 -0.062586
v -0.000000 0.015364 0.199714
v -0.316905 0.034019 0.053323
v 0.256135 -0.006495 0.050832
v 0.298126 0.004089 -0.062805
v 0.345024 0.018980 -0.062586
v 0.316906 0.012612 0.053323
v 0.169810 -0.036654 -0.063403
v 0.139063 -0.043305 0.046035
v 0.196883 -0.014768 0.198413
v 0.281364 0.015364 0.207994
v 0.103423 -0.036261 0.187815
v 0.316906 0.034019 0.053323
v 0.345024 0.040387 -0.062586
v 0.316906 0.034019 0.053323
v 0.312819 -0.001491 -0.145297
v 0.372246 0.019882 -0.142023
v 0.195960 -0.041097 -0.143080
v -0.000000 -0.107947 -0.146660
v -0.195959 -0.041097 -0.143080
v -0.312818 -0.001491 -0.145297
v -0.372246 0.019882 -0.142023
v -0.345024 0.040387 -0.062586
v -0.372246 0.041289 -0.142023
v -0.000000 0.046159 -0.146364
v 0.345024 0.040387 -0.062586
v 0.372246 0.041289 -0.142023
vt 0.805654 0.441693
vt 1.000000 0.441693
vt 1.000000 0.000000
vt 0.863897 0.000000
vt 0.000000 0.000000
vt 0.000000 0.441693
vt 0.431262 0.441693
vt 0.491515 0.000000
vt 0.693823 1.000000
vt 1.000000 1.000000
vt 0.000000 1.000000
vt 0.355102 1.000000
vt 0.000000 0.474768
vt 0.863897 1.000000
vt 0.842559 0.414100
vt 1.000000 0.401335
vt 0.528710 0.479115
vt 0.491515 1.000000
vt 0.000000 0.543221
vt 0.598665 0.000000
vt 0.631383 1.000000
vn -0.294500 -0.954100 0.055200
vn -0.308600 -0.949500 0.056700
vn -0.309400 -0.948700 0.065400
vn -0.306000 -0.949400 0.070800
vn -0.273600 -0.951300 0.142000
vn -0.164800 -0.978000 0.128200
vn -0.220800 -0.970700 0.095200
vn -0.289600 -0.950800 0.109900
vn -0.262100 -0.941700 0.211000
vn -0.097700 0.973000 0.208900
vn -0.084700 -0.984800 0.151300
vn -0.151600 -0.972400 0.177100
vn 0.000000 0.998500 0.054900
vn 0.005900 0.964800 0.262800
vn 0.001700 0.992400 0.122800
vn 0.026600 -0.091000 0.995500
vn -0.971800 0.000000 0.235800
vn -0.974600 0.000000 0.224000
vn 0.294500 -0.954100 0.055200
vn 0.306000 -0.949400 0.070900
vn 0.309400 -0.948700 0.065400
vn 0.308600 -0.949500 0.056700
vn 0.273600 -0.951300 0.142000
vn 0.289600 -0.950800 0.109800
vn 0.220800 -0.970700 0.095200
vn 0.164800 -0.978000 0.128200
vn 0.262100 -0.941700 0.211000
vn 0.097700 0.973000 0.208900
vn 0.151600 -0.972400 0.177100
vn 0.084700 -0.984800 0.151300
vn -0.001700 0.992400 0.122800
vn -0.006000 0.964800 0.262800
vn -0.026600 -0.091000 0.995500
vn 0.971800 0.000000 0.235700
vn 0.974600 0.000000 0.224000
vn 0.312200 -0.941500 0.127000
vn 0.317600 -0.941900 0.109400
vn 0.307300 -0.938400 0.157700
vn 0.305300 -0.935400 0.178300
vn -0.307300 -0.938400 0.157700
vn -0.305300 -0.935400 0.178300
vn -0.312200 -0.941500 0.127000
vn -0.317600 -0.941900 0.109400
vn -0.946000 0.000000 0.324200
vn -0.006500 0.999100 0.041900
vn 0.006500 0.999100 0.041900
vn 0.946000 -0.000000 0.324200
usemtl None
s 1
f 1/1/1 2/2/2 3/3/3 4/4/4
f 5/5/5 6/6/6 7/7/7 8/8/8
f 9/9/9 10/10/10 2/2/2 1/1/1
f 6/6/6 11/11/11 12/12/12 7/7/7
f 13/5/13 14/11/13 15/10/13 16/3/13
f 10/5/10 17/11/14 14/10/15 18/3/15
f 17/3/14 10/5/10 11/10/16
f 10/5/10 9/13/9 11/10/16
f 9/13/9 12/11/12 11/10/16
f 7/7/7 12/12/12 9/9/9 1/1/1
f 8/8/8 7/7/7 1/1/1 4/4/4
f 2/5/17 13/5/17 16/3/17 3/3/17
f 10/5/18 18/3/18 2/3/18
f 19/1/19 20/4/20 21/3/21 22/2/22
f 5/5/23 23/8/24 24/7/25 6/6/26
f 25/9/27 19/1/19 22/2/22 26/10/28
f 6/6/26 24/7/25 27/12/29 11/11/30
f 28/5/13 29/3/13 15/10/13 14/11/13
f 26/5/28 30/3/31 14/10/31 17/11/32
f 17/3/32 11/10/33 26/5/28
f 26/5/28 11/10/33 25/13/27
f 11/10/33 27/11/29 25/13/27
f 24/7/25 19/1/19 25/9/27 27/12/29
f 23/8/24 20/4/20 19/1/19 24/7/25
f 22/5/34 21/3/34 29/3/34 28/5/34
f 26/5/35 22/3/35 30/3/35
f 20/14/20 31/15/36 32/16/37 21/10/21
f 33/17/38 31/15/36 20/14/20 23/18/24
f 34/19/39 33/17/38 23/18/24 5/11/23
f 35/17/40 34/19/41 5/11/5 8/18/8
f 36/15/42 35/17/40 8/18/8 4/14/4
f 4/14/4 3/10/3 37/16/43 36/15/42
f 3/5/44 38/5/44 39/20/44 37/20/44
f 38/5/45 15/11/45 40/21/45 39/20/45
f 41/5/46 42/20/46 40/21/46 15/11/46
f 21/5/47 32/20/47 42/20/47 41/5/47
