# Blender v2.76 (sub 0) OBJ File: ''
# www.blender.org
mtllib tail_front.mtl
o tail_front
v -0.301163 0.328432 0.613214
v -0.052973 0.439283 0.614905
v -0.179904 0.318689 0.215752
v -0.279530 0.274394 0.215752
v -0.156782 -0.209164 0.215752
v -0.177416 -0.253655 0.613145
v -0.353064 -0.203112 0.613223
v -0.328742 -0.148987 0.215752
v -0.409949 0.052126 0.613041
v -0.379083 0.054019 0.215752
v -0.000000 0.479637 0.613432
v -0.000000 0.398784 0.215752
v -0.000000 -0.264114 0.215752
v -0.000000 -0.301964 0.613075
v -0.156782 -0.163634 -0.158275
v -0.000000 -0.213626 -0.158275
v -0.379083 0.038593 -0.158275
v -0.328742 -0.108887 -0.158275
v -0.279530 0.239084 -0.158275
v -0.179904 0.279382 -0.158275
v -0.000000 0.352250 -0.158275
v -0.412409 -0.361370 -0.032013
v -0.412409 -0.336069 -0.095125
v -0.383393 -0.370612 -0.095125
v -0.383393 -0.399338 -0.032013
v -0.047559 -0.091298 -0.628697
v -0.000000 -0.123287 -0.628409
v -0.297981 0.037879 -0.628357
v -0.247625 -0.056355 -0.628448
v -0.198398 0.165972 -0.628532
v -0.059107 0.191659 -0.628853
v -0.000000 0.238265 -0.628566
v 0.052974 0.439283 0.614905
v 0.301164 0.328432 0.613214
v 0.279530 0.274394 0.215752
v 0.179905 0.318689 0.215752
v 0.156783 -0.209164 0.215752
v 0.328743 -0.148987 0.215752
v 0.353065 -0.203112 0.613223
v 0.177417 -0.253655 0.613145
v 0.379083 0.054019 0.215752
v 0.409949 0.052126 0.613041
v 0.156783 -0.163634 -0.158275
v 0.328743 -0.108887 -0.158275
v 0.379083 0.038593 -0.158275
v 0.279530 0.239084 -0.158275
v 0.179905 0.279382 -0.158275
v 0.412409 -0.361370 -0.032013
v 0.383393 -0.399338 -0.032013
v 0.383393 -0.370612 -0.095125
v 0.412409 -0.336069 -0.095125
v 0.047560 -0.091298 -0.628697
v 0.247626 -0.056355 -0.628448
v 0.297982 0.037879 -0.628357
v 0.198399 0.165972 -0.628532
v 0.059107 0.191659 -0.628853
vt 0.375000 0.345103
vt 0.385366 0.345242
vt 0.386128 0.312500
vt 0.375000 0.312500
vt 0.546165 0.312500
vt 0.546863 0.345097
vt 0.562500 0.345104
vt 0.562500 0.312500
vt 0.593750 0.345089
vt 0.593750 0.312500
vt 0.625000 0.345103
vt 0.625000 0.312500
vt 0.406250 0.345121
vt 0.406250 0.312500
vt 0.531250 0.312500
vt 0.531250 0.345092
vt 0.000000 0.000000
vt 0.000000 1.000000
vt 1.000000 1.000000
vt 1.000000 0.000000
vt 0.000000 0.969441
vt 1.000000 0.968848
vt 0.000000 0.968740
vt 1.000000 0.968927
vt 0.000000 0.969100
vt 1.000000 0.968740
vt 0.000000 0.969763
vt 1.000000 0.969100
vt 0.000000 0.969170
vt 1.000000 0.969763
vt 0.000000 0.968927
vt 1.000000 0.969441
vn -0.402500 0.903900 -0.144900
vn -0.430700 0.890400 -0.147400
vn -0.404900 0.905700 -0.125200
vn -0.397900 0.908700 -0.126100
vn -0.303200 -0.945300 -0.120300
vn -0.297200 -0.947200 -0.120300
vn -0.300800 -0.944200 -0.134200
vn -0.986000 -0.162000 -0.039700
vn -0.970300 -0.227100 -0.083400
vn -0.967400 -0.247500 -0.052800
vn -0.912500 0.404500 -0.060500
vn -0.918700 0.385400 -0.086000
vn -0.913000 0.403300 -0.062100
vn -0.455000 0.877900 -0.149500
vn -0.418400 0.899700 -0.124600
vn -0.303500 -0.946100 -0.112900
vn -0.293600 -0.950000 -0.106100
vn -0.337100 -0.928500 -0.155400
vn -0.337400 -0.928300 -0.156000
vn -0.941600 -0.325200 -0.087600
vn -0.983400 -0.172500 -0.055700
vn -0.876500 0.469700 -0.106000
vn -0.875400 0.471000 -0.108600
vn -0.311400 0.935200 -0.168800
vn -0.315000 0.934600 -0.165300
vn -0.410100 0.896700 -0.166600
vn -0.410200 0.896600 -0.166800
vn -0.754200 -0.603600 -0.258400
vn -0.364600 -0.909500 -0.199600
vn -0.908500 -0.378400 -0.177600
vn -0.840500 0.509300 -0.185000
vn -0.260200 0.940900 -0.216700
vn -0.433600 0.868100 -0.241800
vn -0.230900 -0.957300 -0.173800
vn -0.309600 -0.633900 0.708800
vn 0.681800 -0.721200 -0.122500
vn -0.095400 -0.214600 -0.972000
vn -0.940200 0.336800 0.050400
vn 0.430800 0.890300 -0.147400
vn 0.402500 0.903900 -0.144900
vn 0.397900 0.908700 -0.126100
vn 0.404900 0.905700 -0.125300
vn 0.303200 -0.945300 -0.120300
vn 0.300800 -0.944200 -0.134200
vn 0.297200 -0.947200 -0.120300
vn 0.986000 -0.162000 -0.039700
vn 0.967400 -0.247500 -0.052800
vn 0.970300 -0.227100 -0.083400
vn 0.912500 0.404500 -0.060500
vn 0.913000 0.403300 -0.062100
vn 0.918700 0.385400 -0.086000
vn 0.418400 0.899700 -0.124600
vn 0.455000 0.877900 -0.149500
vn 0.303500 -0.946100 -0.112900
vn 0.293600 -0.950000 -0.106100
vn 0.337400 -0.928300 -0.156000
vn 0.337100 -0.928500 -0.155400
vn 0.983400 -0.172500 -0.055700
vn 0.941600 -0.325200 -0.087600
vn 0.875400 0.471000 -0.108600
vn 0.876500 0.469700 -0.106000
vn 0.315000 0.934600 -0.165300
vn 0.311400 0.935200 -0.168800
vn 0.410200 0.896600 -0.166800
vn 0.410100 0.896700 -0.166600
vn 0.754200 -0.603600 -0.258400
vn 0.364600 -0.909500 -0.199600
vn 0.908500 -0.378400 -0.177600
vn 0.840500 0.509300 -0.185000
vn 0.260200 0.940900 -0.216700
vn 0.433600 0.868100 -0.241800
vn 0.230900 -0.957300 -0.173800
vn 0.309600 -0.633900 0.708800
vn -0.681800 -0.721200 -0.122500
vn 0.095400 -0.214600 -0.972000
vn 0.940200 0.336800 0.050400
usemtl None
s 1
f 1/1/1 2/2/2 3/3/3 4/4/4
f 5/5/5 6/6/6 7/7/7 8/8/7
f 8/8/8 7/7/9 9/9/9 10/10/10
f 10/10/11 9/9/12 1/11/12 4/12/13
f 2/2/2 11/13/14 12/14/15 3/3/3
f 13/15/16 14/16/17 6/6/6 5/5/5
f 5/17/5 15/18/18 16/19/19 13/20/16
f 10/17/10 17/18/20 18/19/21 8/20/8
f 4/17/13 19/18/22 17/19/23 10/20/11
f 3/17/3 20/18/24 19/19/25 4/20/4
f 12/17/15 21/18/26 20/19/27 3/20/3
f 22/17/28 23/18/28 24/19/28 25/20/28
f 15/17/18 26/21/29 27/22/29 16/20/19
f 17/17/20 28/23/30 29/24/30 18/20/21
f 19/17/22 30/25/31 28/26/31 17/20/23
f 20/17/24 31/27/32 30/28/32 19/20/25
f 21/17/26 32/29/33 31/30/33 20/20/27
f 18/17/34 29/31/34 26/32/34 15/20/34
f 8/17/35 22/17/35 25/20/35 5/20/35
f 5/20/36 25/20/36 24/19/36 15/19/36
f 15/19/37 24/19/37 23/18/37 18/18/37
f 18/18/21 23/18/38 22/17/38 8/17/8
f 33/2/39 34/1/40 35/4/41 36/3/42
f 37/5/43 38/8/44 39/7/44 40/6/45
f 38/8/46 41/10/47 42/9/48 39/7/48
f 41/10/49 35/12/50 34/11/51 42/9/51
f 33/2/39 36/3/42 12/14/52 11/13/53
f 13/15/54 37/5/43 40/6/45 14/16/55
f 37/17/43 13/20/54 16/19/56 43/18/57
f 41/17/47 38/20/46 44/19/58 45/18/59
f 35/17/50 41/20/49 45/19/60 46/18/61
f 36/17/42 35/20/41 46/19/62 47/18/63
f 12/17/52 36/20/42 47/19/64 21/18/65
f 48/17/66 49/20/66 50/19/66 51/18/66
f 43/17/57 16/20/56 27/22/67 52/21/67
f 45/17/59 44/20/58 53/24/68 54/23/68
f 46/17/61 45/20/60 54/26/69 55/25/69
f 47/17/63 46/20/62 55/28/70 56/27/70
f 21/17/65 47/20/64 56/30/71 32/29/71
f 44/17/72 43/20/72 52/32/72 53/31/72
f 38/17/73 37/20/73 49/20/73 48/17/73
f 37/20/74 43/19/74 50/19/74 49/20/74
f 43/19/75 44/18/75 51/18/75 50/19/75
f 44/18/58 38/17/46 48/17/76 51/18/76
