# Blender v2.76 (sub 0) OBJ File: ''
# www.blender.org
mtllib tail_fin.mtl
o tail_fin
v -0.064763 -0.072851 0.440711
v -0.047243 -0.243255 0.262951
v -0.000000 -0.294531 0.263209
v -0.000000 -0.092683 0.440711
v -0.181893 0.007925 0.440711
v -0.132686 -0.035832 0.262951
v -0.113337 -0.187101 0.262951
v -0.155369 -0.050983 0.440711
v -0.129439 0.088007 0.440711
v -0.094422 0.169809 0.262951
v -0.076946 0.104103 0.440711
v -0.056130 0.202213 0.262951
v -0.000000 0.133346 0.440711
v -0.000000 0.266431 0.262951
v -0.036152 -0.802913 -0.353586
v -0.036152 -0.583496 -0.319271
v -0.000000 -0.652966 -0.315516
v -0.000000 -0.824552 -0.353586
v -0.101537 0.029939 0.005504
v -0.066036 -0.061993 -0.004721
v -0.065739 0.208568 -0.028022
v -0.042953 0.725110 -0.441215
v -0.042953 0.585604 -0.391805
v -0.072256 0.515671 -0.367287
v -0.072256 0.683776 -0.441215
v -0.000000 0.761028 -0.441215
v -0.000000 0.636221 -0.434713
v -0.086730 -0.779216 -0.353586
v -0.086730 -0.501807 -0.315931
v -0.042953 0.366523 0.055288
v -0.072256 0.325190 0.055288
v -0.072256 0.321564 -0.175222
v -0.042953 0.391498 -0.199741
v -0.027258 0.212845 -0.040389
v -0.000000 0.441263 0.055288
v -0.000000 0.442115 -0.242649
v -0.000000 0.214851 -0.055907
v -0.036152 -0.462157 0.105173
v -0.000000 -0.513432 0.105431
v -0.000000 -0.073738 -0.012341
v -0.000000 -0.467464 -0.182722
v -0.036152 -0.397995 -0.094963
v -0.033298 -0.069289 0.000765
v -0.086730 -0.406003 0.105173
v -0.086730 -0.316306 -0.091624
v -0.065945 0.029939 0.005504
v -0.000000 0.029939 0.005504
v 0.064764 -0.072851 0.440711
v 0.047243 -0.243255 0.262951
v 0.181894 0.007925 0.440711
v 0.155369 -0.050983 0.440711
v 0.113338 -0.187101 0.262951
v 0.132687 -0.035832 0.262951
v 0.129439 0.088007 0.440711
v 0.094423 0.169809 0.262951
v 0.076947 0.104103 0.440711
v 0.056131 0.202213 0.262951
v 0.036153 -0.802913 -0.353586
v 0.036153 -0.583496 -0.319271
v 0.066037 -0.061993 -0.004721
v 0.101537 0.029939 0.005504
v 0.065740 0.208568 -0.028022
v 0.042954 0.725110 -0.441215
v 0.072256 0.683776 -0.441215
v 0.072256 0.515671 -0.367287
v 0.042954 0.585604 -0.391805
v 0.086731 -0.779216 -0.353586
v 0.086731 -0.501807 -0.315931
v 0.072256 0.325190 0.055288
v 0.042954 0.366523 0.055288
v 0.072256 0.321564 -0.175222
v 0.027259 0.212845 -0.040389
v 0.042954 0.391498 -0.199741
v 0.036153 -0.462157 0.105173
v 0.033299 -0.069289 0.000765
v 0.036153 -0.397995 -0.094963
v 0.086731 -0.406003 0.105173
v 0.086731 -0.316306 -0.091624
v 0.065946 0.029939 0.005504
vt 0.000000 0.000000
vt 0.000000 1.000000
vt 1.000000 1.000000
vt 1.000000 0.000000
vt 0.500000 0.000000
vt 0.000000 0.500000
vn -0.408000 -0.640300 0.650800
vn -0.460900 -0.600800 0.653200
vn -0.535200 -0.537700 0.651500
vn -0.967200 -0.211100 -0.141400
vn -0.959600 -0.208000 -0.189700
vn -0.990000 -0.059000 -0.128300
vn -0.935800 0.297100 -0.189900
vn -0.977900 0.185500 -0.096800
vn -0.967900 0.223900 -0.114200
vn -0.441600 0.826600 0.348900
vn -0.601400 0.692600 0.398300
vn -0.538400 0.752200 0.380000
vn -0.514400 0.732400 0.446200
vn -0.365600 -0.734300 0.571900
vn -0.410300 -0.681400 0.606100
vn -0.464700 -0.606500 0.645100
vn 0.270000 0.175300 -0.946800
vn -0.954100 -0.206000 -0.217400
vn -0.988700 -0.059500 -0.137800
vn -0.995400 0.072100 -0.063400
vn -0.980500 0.182700 -0.072200
vn 0.303300 -0.354600 -0.884500
vn -0.269800 -0.199300 -0.942100
vn 0.115900 0.142400 -0.983000
vn -0.739600 0.547900 0.391000
vn -0.716600 0.571400 0.400000
vn -0.999200 -0.011200 -0.039600
vn -1.000000 -0.002400 -0.008500
vn 0.366800 -0.660600 -0.655100
vn 0.468900 -0.626000 -0.623100
vn 0.693000 -0.508000 -0.511600
vn -0.743000 0.529800 0.409000
vn -0.731500 0.558600 0.390900
vn -0.736200 0.547200 0.398200
vn -0.140900 -0.645500 -0.750700
vn -0.084800 -0.661100 -0.745500
vn 0.077800 -0.693500 -0.716300
vn -0.752800 0.533700 0.385400
vn -1.000000 0.000000 0.000000
vn 0.735000 -0.477000 -0.482000
vn -0.728600 0.565600 0.386400
vn 0.117900 -0.698400 -0.705900
vn -0.618800 -0.554300 0.556600
vn -0.631500 -0.605400 0.484300
vn -0.703300 0.248200 -0.666100
vn 0.148600 0.615300 -0.774200
vn -0.658200 0.285600 -0.696600
vn -0.522600 -0.601600 0.604100
vn -0.527300 -0.647000 0.550800
vn 0.314200 0.272200 -0.909500
vn 0.726300 0.476000 -0.495800
vn 0.526400 0.383100 -0.759000
vn -0.999300 0.012900 -0.034600
vn -0.998700 0.018100 -0.048600
vn -0.636000 -0.629100 0.446900
vn 0.444000 0.621400 -0.645600
vn -0.528800 -0.669900 0.521200
vn 0.768900 0.492700 -0.407500
vn 0.091200 0.110000 -0.989700
vn -0.020800 0.100100 -0.994800
vn -0.072900 0.095100 -0.992800
vn -0.151700 -0.182200 -0.971500
vn -0.152700 -0.236500 -0.959600
vn -0.152500 -0.222500 -0.962900
vn -0.126400 0.089600 -0.987900
vn -0.153000 -0.261900 -0.952900
vn 0.408000 -0.640300 0.650800
vn 0.535200 -0.537700 0.651500
vn 0.460900 -0.600800 0.653200
vn 0.967200 -0.211100 -0.141400
vn 0.990000 -0.059000 -0.128300
vn 0.959600 -0.208000 -0.189700
vn 0.935800 0.297100 -0.189900
vn 0.967900 0.223900 -0.114200
vn 0.977900 0.185500 -0.096800
vn 0.441600 0.826600 0.348900
vn 0.538400 0.752200 0.380000
vn 0.601400 0.692600 0.398300
vn 0.514400 0.732400 0.446200
vn 0.365600 -0.734300 0.571900
vn 0.464700 -0.606500 0.645100
vn 0.410300 -0.681400 0.606100
vn -0.270000 0.175300 -0.946800
vn 0.988700 -0.059500 -0.137800
vn 0.954100 -0.206000 -0.217400
vn 0.980500 0.182700 -0.072200
vn 0.995400 0.072100 -0.063400
vn -0.303300 -0.354600 -0.884500
vn 0.269800 -0.199300 -0.942100
vn -0.115900 0.142400 -0.983000
vn 0.716500 0.571500 0.400000
vn 0.739500 0.547900 0.391000
vn 1.000000 -0.002400 -0.008500
vn 0.999200 -0.011200 -0.039600
vn -0.366800 -0.660600 -0.655100
vn -0.693000 -0.508000 -0.511600
vn -0.468900 -0.626000 -0.623100
vn 0.743000 0.529800 0.409000
vn 0.736200 0.547200 0.398200
vn 0.731500 0.558600 0.390900
vn 0.140900 -0.645500 -0.750700
vn -0.077800 -0.693500 -0.716300
vn 0.084800 -0.661100 -0.745500
vn 0.752800 0.533700 0.385400
vn 1.000000 -0.000000 0.000000
vn -0.735000 -0.476900 -0.482000
vn 0.728600 0.565600 0.386400
vn -0.117900 -0.698400 -0.705900
vn 0.631500 -0.605400 0.484300
vn 0.618800 -0.554300 0.556600
vn 0.703300 0.248200 -0.666100
vn 0.658200 0.285600 -0.696600
vn -0.148600 0.615300 -0.774200
vn 0.527300 -0.647000 0.550800
vn 0.522600 -0.601600 0.604100
vn -0.314200 0.272200 -0.909500
vn -0.526400 0.383100 -0.759000
vn -0.726300 0.476000 -0.495800
vn 0.998700 0.018100 -0.048600
vn 0.999300 0.012900 -0.034600
vn 0.636000 -0.629100 0.446900
vn -0.444000 0.621400 -0.645600
vn 0.528800 -0.669900 0.521200
vn -0.768900 0.492700 -0.407500
vn -0.091200 0.110000 -0.989700
vn 0.072900 0.095100 -0.992800
vn 0.020800 0.100100 -0.994800
vn 0.151700 -0.182200 -0.971500
vn 0.152500 -0.222500 -0.962900
vn 0.152700 -0.236500 -0.959600
vn 0.126400 0.089600 -0.987900
vn 0.153000 -0.261900 -0.952900
usemtl None
s 1
f 1/1/1 2/2/2 3/3/3 4/4/1
f 5/1/4 6/2/5 7/3/6 8/4/4
f 9/1/7 10/2/8 6/3/9 5/4/7
f 11/1/10 12/2/11 10/3/12 9/4/10
f 13/1/13 14/2/13 12/3/13 11/4/13
f 8/1/14 7/2/15 2/3/16 1/4/14
f 15/1/17 16/2/17 17/3/17 18/4/17
f 6/1/5 19/2/18 20/3/19 7/4/6
f 10/1/8 21/2/20 19/3/21 6/4/9
f 22/5/22 23/6/22 24/3/22 25/4/22
f 26/1/23 27/2/23 23/3/23 22/5/23
f 28/1/24 29/2/24 16/3/24 15/4/24
f 12/1/11 30/6/25 31/4/26 10/4/12
f 10/4/8 31/4/27 32/3/28 21/3/20
f 21/3/29 32/3/30 33/2/31 34/2/29
f 14/1/32 35/1/33 30/4/34 12/4/32
f 34/3/35 33/3/36 36/2/37 37/2/35
f 30/6/25 22/5/38 25/4/38 31/4/26
f 31/4/27 25/4/39 24/3/39 32/3/28
f 32/3/30 24/3/40 23/6/40 33/2/31
f 35/1/33 26/1/41 22/5/41 30/4/34
f 33/3/36 23/3/42 27/2/42 36/2/37
f 2/1/2 38/1/43 39/4/44 3/4/3
f 40/3/45 41/3/46 42/2/47 43/2/45
f 7/1/15 44/1/48 38/4/49 2/4/16
f 43/3/50 42/3/51 45/2/52 20/2/50
f 20/2/19 45/2/53 44/1/54 7/1/6
f 38/1/43 15/1/55 18/4/55 39/4/44
f 41/3/46 17/3/56 16/2/56 42/2/47
f 44/1/48 28/1/57 15/4/57 38/4/49
f 42/3/51 16/3/58 29/2/58 45/2/52
f 45/2/53 29/2/39 28/1/39 44/1/54
f 19/1/59 46/2/60 43/3/61 20/4/59
f 21/1/62 34/2/63 46/3/64 19/4/62
f 46/1/60 47/2/65 40/3/65 43/4/61
f 34/1/63 37/2/66 47/3/66 46/4/64
f 48/1/67 4/4/67 3/3/68 49/2/69
f 50/1/70 51/4/70 52/3/71 53/2/72
f 54/1/73 50/4/73 53/3/74 55/2/75
f 56/1/76 54/4/76 55/3/77 57/2/78
f 13/1/79 56/4/79 57/3/79 14/2/79
f 51/1/80 48/4/80 49/3/81 52/2/82
f 58/1/83 18/4/83 17/3/83 59/2/83
f 53/1/72 52/4/71 60/3/84 61/2/85
f 55/1/75 53/4/74 61/3/86 62/2/87
f 63/5/88 64/4/88 65/3/88 66/6/88
f 26/1/89 63/5/89 66/3/89 27/2/89
f 67/1/90 58/4/90 59/3/90 68/2/90
f 57/1/78 55/4/77 69/4/91 70/6/92
f 55/4/75 62/3/87 71/3/93 69/4/94
f 62/3/95 72/2/95 73/2/96 71/3/97
f 14/1/98 57/4/98 70/4/99 35/1/100
f 72/3/101 37/2/101 36/2/102 73/3/103
f 70/6/92 69/4/91 64/4/104 63/5/104
f 69/4/94 71/3/93 65/3/105 64/4/105
f 71/3/97 73/2/96 66/6/106 65/3/106
f 35/1/100 70/4/99 63/5/107 26/1/107
f 73/3/103 36/2/102 27/2/108 66/3/108
f 49/1/69 3/4/68 39/4/109 74/1/110
f 40/3/111 75/2/111 76/2/112 41/3/113
f 52/1/82 49/4/81 74/4/114 77/1/115
f 75/3/116 60/2/116 78/2/117 76/3/118
f 60/2/84 52/1/71 77/1/119 78/2/120
f 74/1/110 39/4/109 18/4/121 58/1/121
f 41/3/113 76/2/112 59/2/122 17/3/122
f 77/1/115 74/4/114 58/4/123 67/1/123
f 76/3/118 78/2/117 68/2/124 59/3/124
f 78/2/120 77/1/119 67/1/105 68/2/105
f 61/1/125 60/4/125 75/3/126 79/2/127
f 62/1/128 61/4/128 79/3/129 72/2/130
f 79/1/127 75/4/126 40/3/131 47/2/131
f 72/1/130 79/4/129 47/3/132 37/2/132
